digraph "drawNS::Draw3DAPI::draw_polyhedron"
{
 // LATEX_PDF_SIZE
  edge [fontname="Helvetica",fontsize="10",labelfontname="Helvetica",labelfontsize="10"];
  node [fontname="Helvetica",fontsize="10",shape=record];
  rankdir="RL";
  Node1 [label="drawNS::Draw3DAPI::\ldraw_polyhedron",height=0.2,width=0.4,color="black", fillcolor="grey75", style="filled", fontcolor="black",tooltip="draws polyhedron described by its apexs"];
  Node1 -> Node2 [dir="back",color="midnightblue",fontsize="10",style="solid",fontname="Helvetica"];
  Node2 [label="Plaskowyz::rysuj",height=0.2,width=0.4,color="black", fillcolor="white", style="filled",URL="$class_plaskowyz.html#a1bad468940e416f22d1271b16202d93e",tooltip="rysuje rysunek odpowiedniego kształtu w gnuplocie"];
  Node1 -> Node3 [dir="back",color="midnightblue",fontsize="10",style="solid",fontname="Helvetica"];
  Node3 [label="Wzgorze::rysuj",height=0.2,width=0.4,color="black", fillcolor="white", style="filled",URL="$class_wzgorze.html#aae886b674f52c60bffe318bc539c2c19",tooltip="rysuje rysunek odpowiedniego kształtu w gnuplocie"];
  Node1 -> Node4 [dir="back",color="midnightblue",fontsize="10",style="solid",fontname="Helvetica"];
  Node4 [label="Prostopadloscian::rysuj",height=0.2,width=0.4,color="black", fillcolor="white", style="filled",URL="$class_prostopadloscian.html#ab0f6ef8f0e135f8b61b0b5975c76e233",tooltip="rysuje rysunek odpowiedniego kształtu w gnuplocie"];
  Node4 -> Node5 [dir="back",color="midnightblue",fontsize="10",style="solid",fontname="Helvetica"];
  Node5 [label="Dron::rysuj",height=0.2,width=0.4,color="black", fillcolor="white", style="filled",URL="$class_dron.html#abfc5730451faffdda446cb9118fe6b44",tooltip="rysuje rysunek odpowiedniego kształtu w gnuplocie"];
  Node5 -> Node6 [dir="back",color="midnightblue",fontsize="10",style="solid",fontname="Helvetica"];
  Node6 [label="Dron::lec_gora",height=0.2,width=0.4,color="black", fillcolor="white", style="filled",URL="$class_dron.html#aa39c3eac75456d80933f049440c99efd",tooltip="przesuwa środek drona o zadana wartość w górę i rysuje dron"];
  Node5 -> Node7 [dir="back",color="midnightblue",fontsize="10",style="solid",fontname="Helvetica"];
  Node7 [label="Dron::lec_przod",height=0.2,width=0.4,color="black", fillcolor="white", style="filled",URL="$class_dron.html#a861e18bee8fd10c6e861ee5916e32cf9",tooltip="przesuwa środek drona o zadana wartość w przód i rysuje dron"];
  Node5 -> Node8 [dir="back",color="midnightblue",fontsize="10",style="solid",fontname="Helvetica"];
  Node8 [label="Dron::obroc",height=0.2,width=0.4,color="black", fillcolor="white", style="filled",URL="$class_dron.html#adaa5e2ad1fd292bc4f96b1ed206c5158",tooltip="obraca dron o zadany kąt"];
  Node5 -> Node9 [dir="back",color="midnightblue",fontsize="10",style="solid",fontname="Helvetica"];
  Node9 [label="Dron::przekrec_wirniki",height=0.2,width=0.4,color="black", fillcolor="white", style="filled",URL="$class_dron.html#adce34368d78040533ecf80dab84247b5",tooltip="przekręca wszystkie wirniki o 15 stopni i rysuje dron"];
  Node4 -> Node10 [dir="back",color="midnightblue",fontsize="10",style="solid",fontname="Helvetica"];
  Node10 [label="Dron2::rysuj",height=0.2,width=0.4,color="black", fillcolor="white", style="filled",URL="$class_dron2.html#a09ebc7f15d5a025630c8dc839fcd103c",tooltip="rysuje rysunek odpowiedniego kształtu w gnuplocie"];
  Node10 -> Node11 [dir="back",color="midnightblue",fontsize="10",style="solid",fontname="Helvetica"];
  Node11 [label="Dron2::lec_gora",height=0.2,width=0.4,color="black", fillcolor="white", style="filled",URL="$class_dron2.html#ae35b9d01f6d5174b9f0850a8072e8dc3",tooltip="przesuwa środek drona o zadana wartość w górę i rysuje dron"];
  Node10 -> Node12 [dir="back",color="midnightblue",fontsize="10",style="solid",fontname="Helvetica"];
  Node12 [label="Dron2::lec_przod",height=0.2,width=0.4,color="black", fillcolor="white", style="filled",URL="$class_dron2.html#a421c3dc00fe67b62087050fc13ead116",tooltip="przesuwa środek drona o zadana wartość w przód i rysuje dron"];
  Node10 -> Node13 [dir="back",color="midnightblue",fontsize="10",style="solid",fontname="Helvetica"];
  Node13 [label="Dron2::obroc",height=0.2,width=0.4,color="black", fillcolor="white", style="filled",URL="$class_dron2.html#ae50e42b31d6260869ee01f1b46511905",tooltip="obraca dron o zadany kąt"];
  Node10 -> Node14 [dir="back",color="midnightblue",fontsize="10",style="solid",fontname="Helvetica"];
  Node14 [label="Dron2::przekrec_wirniki",height=0.2,width=0.4,color="black", fillcolor="white", style="filled",URL="$class_dron2.html#a008bca2f5a761489ed67218027407e88",tooltip="przekręca wszystkie wirniki o 15 stopni i rysuje dron"];
  Node4 -> Node15 [dir="back",color="midnightblue",fontsize="10",style="solid",fontname="Helvetica"];
  Node15 [label="Dron3::rysuj",height=0.2,width=0.4,color="black", fillcolor="white", style="filled",URL="$class_dron3.html#ac53b118a4f52716b98be5754f2ceee04",tooltip="rysuje rysunek odpowiedniego kształtu w gnuplocie"];
  Node15 -> Node16 [dir="back",color="midnightblue",fontsize="10",style="solid",fontname="Helvetica"];
  Node16 [label="Dron3::lec_gora",height=0.2,width=0.4,color="black", fillcolor="white", style="filled",URL="$class_dron3.html#acd289a13711d24f1989db81702fb8fc9",tooltip="przesuwa środek drona o zadana wartość w górę i rysuje dron"];
  Node15 -> Node17 [dir="back",color="midnightblue",fontsize="10",style="solid",fontname="Helvetica"];
  Node17 [label="Dron3::lec_przod",height=0.2,width=0.4,color="black", fillcolor="white", style="filled",URL="$class_dron3.html#a2eab44bafc7077eedc616b6f8e02f07d",tooltip="przesuwa środek drona o zadana wartość w przód i rysuje dron"];
  Node15 -> Node18 [dir="back",color="midnightblue",fontsize="10",style="solid",fontname="Helvetica"];
  Node18 [label="Dron3::obroc",height=0.2,width=0.4,color="black", fillcolor="white", style="filled",URL="$class_dron3.html#a56ea993a4cc480a0792f1bd077f2f0df",tooltip="obraca dron o zadany kąt"];
  Node15 -> Node19 [dir="back",color="midnightblue",fontsize="10",style="solid",fontname="Helvetica"];
  Node19 [label="Dron3::przekrec_wirniki",height=0.2,width=0.4,color="black", fillcolor="white", style="filled",URL="$class_dron3.html#a2df732b7f78a35ae1c4b7eec76da8f28",tooltip="przekręca wszystkie wirniki o 15 stopni i rysuje dron"];
  Node1 -> Node20 [dir="back",color="midnightblue",fontsize="10",style="solid",fontname="Helvetica"];
  Node20 [label="Plaskowyz_prost::rysuj",height=0.2,width=0.4,color="black", fillcolor="white", style="filled",URL="$class_plaskowyz__prost.html#ac85713c11913b3a20e6f9a4bcacffeee",tooltip="rysuje rysunek odpowiedniego kształtu w gnuplocie"];
  Node1 -> Node21 [dir="back",color="midnightblue",fontsize="10",style="solid",fontname="Helvetica"];
  Node21 [label="Graniastoslup6::rysuj",height=0.2,width=0.4,color="black", fillcolor="white", style="filled",URL="$class_graniastoslup6.html#a47dfe26aa4f16847908e2f328ca9af39",tooltip="rysuje rysunek odpowiedniego kształtu w gnuplocie"];
}
