digraph "Plaskowyz_prost"
{
 // LATEX_PDF_SIZE
  edge [fontname="Helvetica",fontsize="10",labelfontname="Helvetica",labelfontsize="10"];
  node [fontname="Helvetica",fontsize="10",shape=record];
  Node1 [label="Plaskowyz_prost",height=0.2,width=0.4,color="black", fillcolor="grey75", style="filled", fontcolor="black",tooltip="Modeluje pojęcie klasy Plaskowyz_prost Modeluje pojęcie pojęcie klasy Plaskowyz_prost jako elemtu kra..."];
  Node2 -> Node1 [dir="back",color="midnightblue",fontsize="10",style="solid",fontname="Helvetica"];
  Node2 [label="Prostopadloscian",height=0.2,width=0.4,color="black", fillcolor="white", style="filled",URL="$class_prostopadloscian.html",tooltip="Modeluje pojęcie prostopadlościanu."];
  Node3 -> Node2 [dir="back",color="midnightblue",fontsize="10",style="solid",fontname="Helvetica"];
  Node3 [label="Interfejs_rysowanie",height=0.2,width=0.4,color="black", fillcolor="white", style="filled",URL="$class_interfejs__rysowanie.html",tooltip="Modeluje pojęcie interfejsu rysowania."];
  Node4 -> Node2 [dir="back",color="midnightblue",fontsize="10",style="solid",fontname="Helvetica"];
  Node4 [label="Uklad_W",height=0.2,width=0.4,color="black", fillcolor="white", style="filled",URL="$class_uklad___w.html",tooltip="Modeluje układ współrzednych."];
  Node4 -> Node4 [dir="back",color="darkorchid3",fontsize="10",style="dashed",label=" rodzic" ,fontname="Helvetica"];
  Node5 -> Node4 [dir="back",color="darkorchid3",fontsize="10",style="dashed",label=" orientacja" ,fontname="Helvetica"];
  Node5 [label="Macierz_Rot\< 3 \>",height=0.2,width=0.4,color="black", fillcolor="white", style="filled",URL="$class_macierz___rot.html",tooltip=" "];
  Node6 -> Node4 [dir="back",color="darkorchid3",fontsize="10",style="dashed",label=" srodek" ,fontname="Helvetica"];
  Node6 [label="Wektor\< 3 \>",height=0.2,width=0.4,color="black", fillcolor="white", style="filled",URL="$class_wektor.html",tooltip=" "];
  Node7 -> Node1 [dir="back",color="midnightblue",fontsize="10",style="solid",fontname="Helvetica"];
  Node7 [label="Interfejs_elem_kraj",height=0.2,width=0.4,color="black", fillcolor="white", style="filled",URL="$class_interfejs__elem__kraj.html",tooltip="Modeluje pojęcie interfejsu elementów krajobrazu Odpowiada za sprawdzenie możliwości lądowania drona."];
}
