digraph "Scena::dodaj_elem_kraj"
{
 // LATEX_PDF_SIZE
  edge [fontname="Helvetica",fontsize="10",labelfontname="Helvetica",labelfontsize="10"];
  node [fontname="Helvetica",fontsize="10",shape=record];
  rankdir="RL";
  Node1 [label="Scena::dodaj_elem_kraj",height=0.2,width=0.4,color="black", fillcolor="grey75", style="filled", fontcolor="black",tooltip="dodaje nowy element do kolekcji Elementy_krajobrazu"];
  Node1 -> Node2 [dir="back",color="midnightblue",fontsize="10",style="solid",fontname="Helvetica"];
  Node2 [label="main",height=0.2,width=0.4,color="black", fillcolor="white", style="filled",URL="$main_8cpp.html#ae66f6b31b5ad750f1fe042a706a4e3d4",tooltip=" "];
}
