digraph "Powierzchnia::usun_rys"
{
 // LATEX_PDF_SIZE
  edge [fontname="Helvetica",fontsize="10",labelfontname="Helvetica",labelfontsize="10"];
  node [fontname="Helvetica",fontsize="10",shape=record];
  rankdir="LR";
  Node1 [label="Powierzchnia::usun_rys",height=0.2,width=0.4,color="black", fillcolor="grey75", style="filled", fontcolor="black",tooltip="usuwa rysunek po jego id"];
  Node1 -> Node2 [color="midnightblue",fontsize="10",style="solid",fontname="Helvetica"];
  Node2 [label="drawNS::Draw3DAPI::\lerase_shape",height=0.2,width=0.4,color="black", fillcolor="white", style="filled",URL="$classdraw_n_s_1_1_draw3_d_a_p_i.html#ab90eae31dff8403261611ab5f3217357",tooltip="erase shape by id"];
}
