digraph "Plaskowyz"
{
 // LATEX_PDF_SIZE
  edge [fontname="Helvetica",fontsize="10",labelfontname="Helvetica",labelfontsize="10"];
  node [fontname="Helvetica",fontsize="10",shape=record];
  Node1 [label="Plaskowyz",height=0.2,width=0.4,color="black", fillcolor="grey75", style="filled", fontcolor="black",tooltip="Modeluje pojęcie klasy Plaskowyz Modeluje pojęcie pojęcie klasy Plaskowyz jako elemtu krajobrazu w ks..."];
  Node2 -> Node1 [dir="back",color="midnightblue",fontsize="10",style="solid",fontname="Helvetica"];
  Node2 [label="Uklad_W",height=0.2,width=0.4,color="black", fillcolor="white", style="filled",URL="$class_uklad___w.html",tooltip="Modeluje układ współrzednych."];
  Node3 -> Node1 [dir="back",color="midnightblue",fontsize="10",style="solid",fontname="Helvetica"];
  Node3 [label="Interfejs_rysowanie",height=0.2,width=0.4,color="black", fillcolor="white", style="filled",URL="$class_interfejs__rysowanie.html",tooltip="Modeluje pojęcie interfejsu rysowania."];
  Node4 -> Node1 [dir="back",color="midnightblue",fontsize="10",style="solid",fontname="Helvetica"];
  Node4 [label="Interfejs_elem_kraj",height=0.2,width=0.4,color="black", fillcolor="white", style="filled",URL="$class_interfejs__elem__kraj.html",tooltip="Modeluje pojęcie interfejsu elementów krajobrazu Odpowiada za sprawdzenie możliwości lądowania drona."];
}
