digraph "Graphical Class Hierarchy"
{
 // LATEX_PDF_SIZE
  edge [fontname="Helvetica",fontsize="10",labelfontname="Helvetica",labelfontsize="10"];
  node [fontname="Helvetica",fontsize="10",shape=record];
  rankdir="LR";
  Node19 [label="Interfejs_Dron",height=0.2,width=0.4,color="black", fillcolor="white", style="filled",URL="$class_interfejs___dron.html",tooltip="Modeluje pojęcie interfejsu drona."];
  Node19 -> Node1 [dir="back",color="midnightblue",fontsize="10",style="solid",fontname="Helvetica"];
  Node1 [label="Dron",height=0.2,width=0.4,color="black", fillcolor="white", style="filled",URL="$class_dron.html",tooltip="Modeluje pojęcie drona z 4 wirnikami."];
  Node19 -> Node2 [dir="back",color="midnightblue",fontsize="10",style="solid",fontname="Helvetica"];
  Node2 [label="Dron2",height=0.2,width=0.4,color="black", fillcolor="white", style="filled",URL="$class_dron2.html",tooltip="Modeluje pojęcie drona z 3 wirnikami."];
  Node19 -> Node3 [dir="back",color="midnightblue",fontsize="10",style="solid",fontname="Helvetica"];
  Node3 [label="Dron3",height=0.2,width=0.4,color="black", fillcolor="white", style="filled",URL="$class_dron3.html",tooltip=" "];
  Node18 [label="Interfejs_elem_kraj",height=0.2,width=0.4,color="black", fillcolor="white", style="filled",URL="$class_interfejs__elem__kraj.html",tooltip="Modeluje pojęcie interfejsu elementów krajobrazu Odpowiada za sprawdzenie możliwości lądowania drona."];
  Node18 -> Node1 [dir="back",color="midnightblue",fontsize="10",style="solid",fontname="Helvetica"];
  Node18 -> Node2 [dir="back",color="midnightblue",fontsize="10",style="solid",fontname="Helvetica"];
  Node18 -> Node3 [dir="back",color="midnightblue",fontsize="10",style="solid",fontname="Helvetica"];
  Node18 -> Node5 [dir="back",color="midnightblue",fontsize="10",style="solid",fontname="Helvetica"];
  Node5 [label="Plaskowyz",height=0.2,width=0.4,color="black", fillcolor="white", style="filled",URL="$class_plaskowyz.html",tooltip="Modeluje pojęcie klasy Plaskowyz Modeluje pojęcie pojęcie klasy Plaskowyz jako elemtu krajobrazu w ks..."];
  Node18 -> Node7 [dir="back",color="midnightblue",fontsize="10",style="solid",fontname="Helvetica"];
  Node7 [label="Plaskowyz_prost",height=0.2,width=0.4,color="black", fillcolor="white", style="filled",URL="$class_plaskowyz__prost.html",tooltip="Modeluje pojęcie klasy Plaskowyz_prost Modeluje pojęcie pojęcie klasy Plaskowyz_prost jako elemtu kra..."];
  Node18 -> Node8 [dir="back",color="midnightblue",fontsize="10",style="solid",fontname="Helvetica"];
  Node8 [label="Wzgorze",height=0.2,width=0.4,color="black", fillcolor="white", style="filled",URL="$class_wzgorze.html",tooltip="Modeluje pojęcie klasy Wzgorze Modeluje pojęcie pojęcie klasy Wzgorze jako elemtu krajobrazu w kształ..."];
  Node16 [label="Interfejs_rysowanie",height=0.2,width=0.4,color="black", fillcolor="white", style="filled",URL="$class_interfejs__rysowanie.html",tooltip="Modeluje pojęcie interfejsu rysowania."];
  Node16 -> Node1 [dir="back",color="midnightblue",fontsize="10",style="solid",fontname="Helvetica"];
  Node16 -> Node2 [dir="back",color="midnightblue",fontsize="10",style="solid",fontname="Helvetica"];
  Node16 -> Node3 [dir="back",color="midnightblue",fontsize="10",style="solid",fontname="Helvetica"];
  Node16 -> Node4 [dir="back",color="midnightblue",fontsize="10",style="solid",fontname="Helvetica"];
  Node4 [label="Graniastoslup6",height=0.2,width=0.4,color="black", fillcolor="white", style="filled",URL="$class_graniastoslup6.html",tooltip="Modeluje pojęcie graniastosłupa sześciokątnego foremnego."];
  Node16 -> Node5 [dir="back",color="midnightblue",fontsize="10",style="solid",fontname="Helvetica"];
  Node16 -> Node17 [dir="back",color="midnightblue",fontsize="10",style="solid",fontname="Helvetica"];
  Node17 [label="Powierzchnia",height=0.2,width=0.4,color="black", fillcolor="white", style="filled",URL="$class_powierzchnia.html",tooltip="Modeluje pojęcie klasy Powierzchnia Modeluje pojęcie pojęcie klasy Powierzchnia jako plaskiej powierz..."];
  Node16 -> Node6 [dir="back",color="midnightblue",fontsize="10",style="solid",fontname="Helvetica"];
  Node6 [label="Prostopadloscian",height=0.2,width=0.4,color="black", fillcolor="white", style="filled",URL="$class_prostopadloscian.html",tooltip="Modeluje pojęcie prostopadlościanu."];
  Node6 -> Node7 [dir="back",color="midnightblue",fontsize="10",style="solid",fontname="Helvetica"];
  Node16 -> Node8 [dir="back",color="midnightblue",fontsize="10",style="solid",fontname="Helvetica"];
  Node0 [label="Uklad_W",height=0.2,width=0.4,color="black", fillcolor="white", style="filled",URL="$class_uklad___w.html",tooltip="Modeluje układ współrzednych."];
  Node0 -> Node1 [dir="back",color="darkgreen",fontsize="10",style="solid",fontname="Helvetica"];
  Node0 -> Node2 [dir="back",color="darkgreen",fontsize="10",style="solid",fontname="Helvetica"];
  Node0 -> Node3 [dir="back",color="darkgreen",fontsize="10",style="solid",fontname="Helvetica"];
  Node0 -> Node4 [dir="back",color="midnightblue",fontsize="10",style="solid",fontname="Helvetica"];
  Node0 -> Node5 [dir="back",color="midnightblue",fontsize="10",style="solid",fontname="Helvetica"];
  Node0 -> Node6 [dir="back",color="midnightblue",fontsize="10",style="solid",fontname="Helvetica"];
  Node0 -> Node8 [dir="back",color="midnightblue",fontsize="10",style="solid",fontname="Helvetica"];
}
